npc/vsrc/testbench/wave/waveform.vcd
$version Generated by VerilatedVcd $end
$timescale 1ps $end
 $scope module TOP $end
  $scope module ysyx_24100029_IFU_tb $end
   $var wire 32 p! ADDR_WIDTH [31:0] $end
   $scope module bus $end
    $var wire 32 p! ADDR_WIDTH [31:0] $end
    $var wire 32 p! DATA_WIDTH [31:0] $end
    $var wire 32 }! ID_WIDTH [31:0] $end
    $var wire 1 %" awid [0:0] $end
    $var wire 32 ~! awaddr [31:0] $end
    $var wire 8 &" awlen [7:0] $end
    $var wire 3 '" awsize [2:0] $end
    $var wire 2 u! awburst [1:0] $end
    $var wire 1 (" awvalid $end
    $var wire 1 )" awready $end
    $var wire 32 ~! wdata [31:0] $end
    $var wire 4 *" wstrb [3:0] $end
    $var wire 1 (" wlast $end
    $var wire 1 (" wvalid $end
    $var wire 1 +" wready $end
    $var wire 1 ," bid [0:0] $end
    $var wire 2 -" bresp [1:0] $end
    $var wire 1 ." bvalid $end
    $var wire 1 (" bready $end
    $var wire 1 %" arid [0:0] $end
    $var wire 32 >! araddr [31:0] $end
    $var wire 8 /" arlen [7:0] $end
    $var wire 3 0" arsize [2:0] $end
    $var wire 2 t! arburst [1:0] $end
    $var wire 1 < arvalid $end
    $var wire 1 ?! arready $end
    $var wire 1 1" rid [0:0] $end
    $var wire 32 o! rdata [31:0] $end
    $var wire 2 2" rresp [1:0] $end
    $var wire 1 @! rlast $end
    $var wire 1 A! rvalid $end
    $var wire 1 l! rready $end
   $upscope $end
   $var wire 1 m! clock $end
   $var wire 1 # reset $end
   $var wire 32 $ dnpc [31:0] $end
   $var wire 1 % dnpc_valid $end
   $var wire 1 & icache_clr $end
   $var wire 4 q! inst_ren [3:0] $end
   $var wire 1 ' clr $end
   $var wire 4 r! inst_count [3:0] $end
   $var wire 32 4 inst1_o [31:0] $end
   $var wire 32 5 pc1_o [31:0] $end
   $var wire 32 6 inst2_o [31:0] $end
   $var wire 32 7 pc2_o [31:0] $end
   $var wire 32 8 inst3_o [31:0] $end
   $var wire 32 9 pc3_o [31:0] $end
   $var wire 32 : inst4_o [31:0] $end
   $var wire 32 ; pc4_o [31:0] $end
   $var wire 1 < req $end
   $var wire 4 = valid [3:0] $end
   $var wire 4 ( ready [3:0] $end
   $var wire 8 ) count [7:0] $end
   $scope module u_mem $end
    $var wire 32 s! MEM_SIZE [31:0] $end
    $var wire 32 p! DATA_WIDTH [31:0] $end
    $var wire 1 m! clk $end
    $var wire 1 # reset $end
    $scope module mem_if $end
     $var wire 32 p! ADDR_WIDTH [31:0] $end
     $var wire 32 p! DATA_WIDTH [31:0] $end
     $var wire 32 }! ID_WIDTH [31:0] $end
     $var wire 1 %" awid [0:0] $end
     $var wire 32 ~! awaddr [31:0] $end
     $var wire 8 &" awlen [7:0] $end
     $var wire 3 '" awsize [2:0] $end
     $var wire 2 u! awburst [1:0] $end
     $var wire 1 (" awvalid $end
     $var wire 1 )" awready $end
     $var wire 32 ~! wdata [31:0] $end
     $var wire 4 *" wstrb [3:0] $end
     $var wire 1 (" wlast $end
     $var wire 1 (" wvalid $end
     $var wire 1 +" wready $end
     $var wire 1 ," bid [0:0] $end
     $var wire 2 -" bresp [1:0] $end
     $var wire 1 ." bvalid $end
     $var wire 1 (" bready $end
     $var wire 1 %" arid [0:0] $end
     $var wire 32 >! araddr [31:0] $end
     $var wire 8 /" arlen [7:0] $end
     $var wire 3 0" arsize [2:0] $end
     $var wire 2 t! arburst [1:0] $end
     $var wire 1 < arvalid $end
     $var wire 1 ?! arready $end
     $var wire 1 1" rid [0:0] $end
     $var wire 32 o! rdata [31:0] $end
     $var wire 2 2" rresp [1:0] $end
     $var wire 1 @! rlast $end
     $var wire 1 A! rvalid $end
     $var wire 1 l! rready $end
    $upscope $end
    $var wire 2 t! INCR [1:0] $end
    $var wire 2 u! FIXED [1:0] $end
    $var wire 2 u! IDLE [1:0] $end
    $var wire 2 t! ADDR [1:0] $end
    $var wire 2 v! READ [1:0] $end
    $var wire 32 w! ROM_ADDR [31:0] $end
    $var wire 2 > state [1:0] $end
    $var wire 8 ? len [7:0] $end
    $var wire 3 @ size [2:0] $end
    $var wire 32 A addr [31:0] $end
    $var wire 2 B burst [1:0] $end
   $upscope $end
   $scope module u_ysyx_24100029_IFU $end
    $var wire 32 w! ResetValue [31:0] $end
    $var wire 32 x! Issue_Num [31:0] $end
    $var wire 32 p! ADDR_WIDTH [31:0] $end
    $var wire 1 m! clock $end
    $var wire 1 # reset $end
    $var wire 32 $ dnpc [31:0] $end
    $var wire 1 % dnpc_valid $end
    $var wire 1 & icache_clr $end
    $var wire 1 ' clr $end
    $var wire 32 4 inst1_o [31:0] $end
    $var wire 32 6 inst2_o [31:0] $end
    $var wire 32 8 inst3_o [31:0] $end
    $var wire 32 : inst4_o [31:0] $end
    $var wire 32 5 pc1_o [31:0] $end
    $var wire 32 7 pc2_o [31:0] $end
    $var wire 32 9 pc3_o [31:0] $end
    $var wire 32 ; pc4_o [31:0] $end
    $var wire 4 = valid [3:0] $end
    $var wire 4 ( ready [3:0] $end
    $scope module ifu_axi $end
     $var wire 32 p! ADDR_WIDTH [31:0] $end
     $var wire 32 p! DATA_WIDTH [31:0] $end
     $var wire 32 }! ID_WIDTH [31:0] $end
     $var wire 1 %" awid [0:0] $end
     $var wire 32 ~! awaddr [31:0] $end
     $var wire 8 &" awlen [7:0] $end
     $var wire 3 '" awsize [2:0] $end
     $var wire 2 u! awburst [1:0] $end
     $var wire 1 (" awvalid $end
     $var wire 1 )" awready $end
     $var wire 32 ~! wdata [31:0] $end
     $var wire 4 *" wstrb [3:0] $end
     $var wire 1 (" wlast $end
     $var wire 1 (" wvalid $end
     $var wire 1 +" wready $end
     $var wire 1 ," bid [0:0] $end
     $var wire 2 -" bresp [1:0] $end
     $var wire 1 ." bvalid $end
     $var wire 1 (" bready $end
     $var wire 1 %" arid [0:0] $end
     $var wire 32 >! araddr [31:0] $end
     $var wire 8 /" arlen [7:0] $end
     $var wire 3 0" arsize [2:0] $end
     $var wire 2 t! arburst [1:0] $end
     $var wire 1 < arvalid $end
     $var wire 1 ?! arready $end
     $var wire 1 1" rid [0:0] $end
     $var wire 32 o! rdata [31:0] $end
     $var wire 2 2" rresp [1:0] $end
     $var wire 1 @! rlast $end
     $var wire 1 A! rvalid $end
     $var wire 1 l! rready $end
    $upscope $end
    $var wire 1 < req $end
    $var wire 32 y! FETCH_NUM [31:0] $end
    $var wire 32 C pc [31:0] $end
    $var wire 32 D pc_i[0] [31:0] $end
    $var wire 32 E pc_i[1] [31:0] $end
    $var wire 32 F pc_i[2] [31:0] $end
    $var wire 32 G pc_i[3] [31:0] $end
    $var wire 32 H pc_i[4] [31:0] $end
    $var wire 32 I pc_i[5] [31:0] $end
    $var wire 32 J pc_i[6] [31:0] $end
    $var wire 32 K pc_i[7] [31:0] $end
    $var wire 32 B! inst_i[0] [31:0] $end
    $var wire 32 C! inst_i[1] [31:0] $end
    $var wire 32 D! inst_i[2] [31:0] $end
    $var wire 32 E! inst_i[3] [31:0] $end
    $var wire 32 F! inst_i[4] [31:0] $end
    $var wire 32 G! inst_i[5] [31:0] $end
    $var wire 32 H! inst_i[6] [31:0] $end
    $var wire 32 I! inst_i[7] [31:0] $end
    $var wire 8 J! inst_wen [7:0] $end
    $var wire 32 C icache_addr [31:0] $end
    $var wire 1 z! icache_arvalid $end
    $var wire 1 K! icache_arready $end
    $var wire 1 L icache_rready $end
    $var wire 256 L! icache_inst [255:0] $end
    $var wire 1 T! icache_rvalid $end
    $var wire 1 U! pc_update $end
    $var wire 4 M inst_fetch_count [3:0] $end
    $var wire 1 % inst_buffer_clr $end
    $var wire 4 N inst_count [3:0] $end
    $var wire 4 * inst_ren [3:0] $end
    $scope module u_Inst_Buffer $end
     $var wire 32 p! DATA_WIDTH [31:0] $end
     $var wire 32 p! ADDR_WIDTH [31:0] $end
     $var wire 32 {! Depth [31:0] $end
     $var wire 1 m! clk $end
     $var wire 1 # rst $end
     $var wire 1 % clr $end
     $var wire 32 B! inst_i[0] [31:0] $end
     $var wire 32 C! inst_i[1] [31:0] $end
     $var wire 32 D! inst_i[2] [31:0] $end
     $var wire 32 E! inst_i[3] [31:0] $end
     $var wire 32 F! inst_i[4] [31:0] $end
     $var wire 32 G! inst_i[5] [31:0] $end
     $var wire 32 H! inst_i[6] [31:0] $end
     $var wire 32 I! inst_i[7] [31:0] $end
     $var wire 32 D pc_i[0] [31:0] $end
     $var wire 32 E pc_i[1] [31:0] $end
     $var wire 32 F pc_i[2] [31:0] $end
     $var wire 32 G pc_i[3] [31:0] $end
     $var wire 32 H pc_i[4] [31:0] $end
     $var wire 32 I pc_i[5] [31:0] $end
     $var wire 32 J pc_i[6] [31:0] $end
     $var wire 32 K pc_i[7] [31:0] $end
     $var wire 8 J! inst_wen [7:0] $end
     $var wire 4 * inst_ren [3:0] $end
     $var wire 32 4 inst1_o [31:0] $end
     $var wire 32 6 inst2_o [31:0] $end
     $var wire 32 8 inst3_o [31:0] $end
     $var wire 32 : inst4_o [31:0] $end
     $var wire 32 5 pc1_o [31:0] $end
     $var wire 32 7 pc2_o [31:0] $end
     $var wire 32 9 pc3_o [31:0] $end
     $var wire 32 ; pc4_o [31:0] $end
     $var wire 4 N inst_count [3:0] $end
     $var wire 4 O w_ptr [3:0] $end
     $var wire 4 P r_ptr [3:0] $end
     $var wire 32 Q fifo[0] [31:0] $end
     $var wire 32 R fifo[1] [31:0] $end
     $var wire 32 S fifo[2] [31:0] $end
     $var wire 32 T fifo[3] [31:0] $end
     $var wire 32 U fifo[4] [31:0] $end
     $var wire 32 V fifo[5] [31:0] $end
     $var wire 32 W fifo[6] [31:0] $end
     $var wire 32 X fifo[7] [31:0] $end
     $var wire 32 Y fifo[8] [31:0] $end
     $var wire 32 Z fifo[9] [31:0] $end
     $var wire 32 [ fifo[10] [31:0] $end
     $var wire 32 \ fifo[11] [31:0] $end
     $var wire 32 ] fifo[12] [31:0] $end
     $var wire 32 ^ fifo[13] [31:0] $end
     $var wire 32 _ fifo[14] [31:0] $end
     $var wire 32 ` fifo[15] [31:0] $end
     $var wire 32 a pc_fifo[0] [31:0] $end
     $var wire 32 b pc_fifo[1] [31:0] $end
     $var wire 32 c pc_fifo[2] [31:0] $end
     $var wire 32 d pc_fifo[3] [31:0] $end
     $var wire 32 e pc_fifo[4] [31:0] $end
     $var wire 32 f pc_fifo[5] [31:0] $end
     $var wire 32 g pc_fifo[6] [31:0] $end
     $var wire 32 h pc_fifo[7] [31:0] $end
     $var wire 32 i pc_fifo[8] [31:0] $end
     $var wire 32 j pc_fifo[9] [31:0] $end
     $var wire 32 k pc_fifo[10] [31:0] $end
     $var wire 32 l pc_fifo[11] [31:0] $end
     $var wire 32 m pc_fifo[12] [31:0] $end
     $var wire 32 n pc_fifo[13] [31:0] $end
     $var wire 32 o pc_fifo[14] [31:0] $end
     $var wire 32 p pc_fifo[15] [31:0] $end
     $var wire 4 V! count_input [3:0] $end
     $var wire 3 + count_output [2:0] $end
     $scope module u1_count_ones $end
      $var wire 32 x! DATA_WIDTH [31:0] $end
      $var wire 4 * data_in [3:0] $end
      $var wire 3 + count_out [2:0] $end
      $scope module recursive $end
       $var wire 2 , count_low [1:0] $end
       $var wire 2 - count_high [1:0] $end
       $scope module high $end
        $var wire 32 |! DATA_WIDTH [31:0] $end
        $var wire 2 . data_in [1:0] $end
        $var wire 2 - count_out [1:0] $end
        $scope module recursive $end
         $var wire 1 / count_low [0:0] $end
         $var wire 1 0 count_high [0:0] $end
         $scope module high $end
          $var wire 32 }! DATA_WIDTH [31:0] $end
          $var wire 1 0 data_in [0:0] $end
          $var wire 1 0 count_out [0:0] $end
         $upscope $end
         $scope module low $end
          $var wire 32 }! DATA_WIDTH [31:0] $end
          $var wire 1 / data_in [0:0] $end
          $var wire 1 / count_out [0:0] $end
         $upscope $end
        $upscope $end
       $upscope $end
       $scope module low $end
        $var wire 32 |! DATA_WIDTH [31:0] $end
        $var wire 2 1 data_in [1:0] $end
        $var wire 2 , count_out [1:0] $end
        $scope module recursive $end
         $var wire 1 2 count_low [0:0] $end
         $var wire 1 3 count_high [0:0] $end
         $scope module high $end
          $var wire 32 }! DATA_WIDTH [31:0] $end
          $var wire 1 3 data_in [0:0] $end
          $var wire 1 3 count_out [0:0] $end
         $upscope $end
         $scope module low $end
          $var wire 32 }! DATA_WIDTH [31:0] $end
          $var wire 1 2 data_in [0:0] $end
          $var wire 1 2 count_out [0:0] $end
         $upscope $end
        $upscope $end
       $upscope $end
      $upscope $end
     $upscope $end
     $scope module u_count_ones $end
      $var wire 32 y! DATA_WIDTH [31:0] $end
      $var wire 8 J! data_in [7:0] $end
      $var wire 4 V! count_out [3:0] $end
      $scope module recursive $end
       $var wire 3 W! count_low [2:0] $end
       $var wire 3 X! count_high [2:0] $end
       $scope module high $end
        $var wire 32 x! DATA_WIDTH [31:0] $end
        $var wire 4 Y! data_in [3:0] $end
        $var wire 3 X! count_out [2:0] $end
        $scope module recursive $end
         $var wire 2 Z! count_low [1:0] $end
         $var wire 2 [! count_high [1:0] $end
         $scope module high $end
          $var wire 32 |! DATA_WIDTH [31:0] $end
          $var wire 2 \! data_in [1:0] $end
          $var wire 2 [! count_out [1:0] $end
          $scope module recursive $end
           $var wire 1 ]! count_low [0:0] $end
           $var wire 1 ^! count_high [0:0] $end
           $scope module high $end
            $var wire 32 }! DATA_WIDTH [31:0] $end
            $var wire 1 ^! data_in [0:0] $end
            $var wire 1 ^! count_out [0:0] $end
           $upscope $end
           $scope module low $end
            $var wire 32 }! DATA_WIDTH [31:0] $end
            $var wire 1 ]! data_in [0:0] $end
            $var wire 1 ]! count_out [0:0] $end
           $upscope $end
          $upscope $end
         $upscope $end
         $scope module low $end
          $var wire 32 |! DATA_WIDTH [31:0] $end
          $var wire 2 _! data_in [1:0] $end
          $var wire 2 Z! count_out [1:0] $end
          $scope module recursive $end
           $var wire 1 `! count_low [0:0] $end
           $var wire 1 a! count_high [0:0] $end
           $scope module high $end
            $var wire 32 }! DATA_WIDTH [31:0] $end
            $var wire 1 a! data_in [0:0] $end
            $var wire 1 a! count_out [0:0] $end
           $upscope $end
           $scope module low $end
            $var wire 32 }! DATA_WIDTH [31:0] $end
            $var wire 1 `! data_in [0:0] $end
            $var wire 1 `! count_out [0:0] $end
           $upscope $end
          $upscope $end
         $upscope $end
        $upscope $end
       $upscope $end
       $scope module low $end
        $var wire 32 x! DATA_WIDTH [31:0] $end
        $var wire 4 b! data_in [3:0] $end
        $var wire 3 W! count_out [2:0] $end
        $scope module recursive $end
         $var wire 2 c! count_low [1:0] $end
         $var wire 2 d! count_high [1:0] $end
         $scope module high $end
          $var wire 32 |! DATA_WIDTH [31:0] $end
          $var wire 2 e! data_in [1:0] $end
          $var wire 2 d! count_out [1:0] $end
          $scope module recursive $end
           $var wire 1 f! count_low [0:0] $end
           $var wire 1 g! count_high [0:0] $end
           $scope module high $end
            $var wire 32 }! DATA_WIDTH [31:0] $end
            $var wire 1 g! data_in [0:0] $end
            $var wire 1 g! count_out [0:0] $end
           $upscope $end
           $scope module low $end
            $var wire 32 }! DATA_WIDTH [31:0] $end
            $var wire 1 f! data_in [0:0] $end
            $var wire 1 f! count_out [0:0] $end
           $upscope $end
          $upscope $end
         $upscope $end
         $scope module low $end
          $var wire 32 |! DATA_WIDTH [31:0] $end
          $var wire 2 h! data_in [1:0] $end
          $var wire 2 c! count_out [1:0] $end
          $scope module recursive $end
           $var wire 1 U! count_low [0:0] $end
           $var wire 1 n! count_high [0:0] $end
           $scope module high $end
            $var wire 32 }! DATA_WIDTH [31:0] $end
            $var wire 1 n! data_in [0:0] $end
            $var wire 1 n! count_out [0:0] $end
           $upscope $end
           $scope module low $end
            $var wire 32 }! DATA_WIDTH [31:0] $end
            $var wire 1 U! data_in [0:0] $end
            $var wire 1 U! count_out [0:0] $end
           $upscope $end
          $upscope $end
         $upscope $end
        $upscope $end
       $upscope $end
      $upscope $end
     $upscope $end
    $upscope $end
    $scope module u_npc_generate $end
     $var wire 32 w! ResetValue [31:0] $end
     $var wire 32 y! Fetch_Num [31:0] $end
     $var wire 1 m! clock $end
     $var wire 1 # reset $end
     $var wire 32 $ dnpc [31:0] $end
     $var wire 1 % dnpc_valid $end
     $var wire 1 U! pc_update $end
     $var wire 32 C pc [31:0] $end
     $var wire 32 q snpc [31:0] $end
    $upscope $end
    $scope module u_ysyx_24100029_icache $end
     $var wire 32 ~! CacheLine_Width [31:0] $end
     $var wire 32 x! OFFSET_WIDTH [31:0] $end
     $var wire 32 |! INDEX_WIDTH [31:0] $end
     $var wire 32 p! ADDR_WIDTH [31:0] $end
     $var wire 32 !" INST_WIDTH [31:0] $end
     $var wire 1 m! clock $end
     $var wire 1 # reset $end
     $var wire 1 ' clr $end
     $var wire 32 C addr [31:0] $end
     $var wire 1 z! arvalid $end
     $var wire 1 K! arready $end
     $var wire 1 L rready $end
     $var wire 256 L! inst [255:0] $end
     $var wire 1 T! rvalid $end
     $scope module icache_axi $end
      $var wire 32 p! ADDR_WIDTH [31:0] $end
      $var wire 32 p! DATA_WIDTH [31:0] $end
      $var wire 32 }! ID_WIDTH [31:0] $end
      $var wire 1 %" awid [0:0] $end
      $var wire 32 ~! awaddr [31:0] $end
      $var wire 8 &" awlen [7:0] $end
      $var wire 3 '" awsize [2:0] $end
      $var wire 2 u! awburst [1:0] $end
      $var wire 1 (" awvalid $end
      $var wire 1 )" awready $end
      $var wire 32 ~! wdata [31:0] $end
      $var wire 4 *" wstrb [3:0] $end
      $var wire 1 (" wlast $end
      $var wire 1 (" wvalid $end
      $var wire 1 +" wready $end
      $var wire 1 ," bid [0:0] $end
      $var wire 2 -" bresp [1:0] $end
      $var wire 1 ." bvalid $end
      $var wire 1 (" bready $end
      $var wire 1 %" arid [0:0] $end
      $var wire 32 >! araddr [31:0] $end
      $var wire 8 /" arlen [7:0] $end
      $var wire 3 0" arsize [2:0] $end
      $var wire 2 t! arburst [1:0] $end
      $var wire 1 < arvalid $end
      $var wire 1 ?! arready $end
      $var wire 1 1" rid [0:0] $end
      $var wire 32 o! rdata [31:0] $end
      $var wire 2 2" rresp [1:0] $end
      $var wire 1 @! rlast $end
      $var wire 1 A! rvalid $end
      $var wire 1 l! rready $end
     $upscope $end
     $var wire 2 u! IDLE [1:0] $end
     $var wire 2 t! ADDR [1:0] $end
     $var wire 2 v! MISS [1:0] $end
     $var wire 2 "" HIT [1:0] $end
     $var wire 32 #" TAG_WIDTH [31:0] $end
     $var wire 32 }! VALID_WIDTH [31:0] $end
     $var wire 32 $" CACHE_WIDTH [31:0] $end
     $var wire 1 r valid [0:0] $end
     $var wire 26 s tag [25:0] $end
     $var wire 1 %" block_choice [0:0] $end
     $var wire 256 L! block_data [255:0] $end
     $var wire 1 t hit $end
     $var wire 2 u index [1:0] $end
     $var wire 283 v icache[0] [282:0] $end
     $var wire 283 !! icache[1] [282:0] $end
     $var wire 283 *! icache[2] [282:0] $end
     $var wire 283 3! icache[3] [282:0] $end
     $var wire 2 i! state [1:0] $end
     $var wire 8 <! count [7:0] $end
     $var wire 1 j! hit_r $end
     $var wire 2 k! index_r [1:0] $end
     $var wire 32 =! i [31:0] $end
    $upscope $end
   $upscope $end
  $upscope $end
 $upscope $end
$enddefinitions $end


#0
1#
b00000000000000000000000000000000 $
0%
0&
0'
b1111 (
b00000001 )
b0000 *
b000 +
b00 ,
b00 -
b00 .
0/
00
b00 1
02
03
b00000000000000000000000000000000 4
b00000000000000000000000000000000 5
b00000000000000000000000000000000 6
b00000000000000000000000000000000 7
b00000000000000000000000000000000 8
b00000000000000000000000000000000 9
b00000000000000000000000000000000 :
b00000000000000000000000000000000 ;
0<
b0000 =
b00 >
b00000000 ?
b000 @
b00000000000000000000000000000000 A
b00 B
b00000000000000000000000000000000 C
b00000000000000000000000000000000 D
b00000000000000000000000000000100 E
b00000000000000000000000000001000 F
b00000000000000000000000000001100 G
b00000000000000000000000000010000 H
b00000000000000000000000000010100 I
b00000000000000000000000000011000 J
b00000000000000000000000000011100 K
1L
b1000 M
b0000 N
b0000 O
b0000 P
b00000000000000000000000000000000 Q
b00000000000000000000000000000000 R
b00000000000000000000000000000000 S
b00000000000000000000000000000000 T
b00000000000000000000000000000000 U
b00000000000000000000000000000000 V
b00000000000000000000000000000000 W
b00000000000000000000000000000000 X
b00000000000000000000000000000000 Y
b00000000000000000000000000000000 Z
b00000000000000000000000000000000 [
b00000000000000000000000000000000 \
b00000000000000000000000000000000 ]
b00000000000000000000000000000000 ^
b00000000000000000000000000000000 _
b00000000000000000000000000000000 `
b00000000000000000000000000000000 a
b00000000000000000000000000000000 b
b00000000000000000000000000000000 c
b00000000000000000000000000000000 d
b00000000000000000000000000000000 e
b00000000000000000000000000000000 f
b00000000000000000000000000000000 g
b00000000000000000000000000000000 h
b00000000000000000000000000000000 i
b00000000000000000000000000000000 j
b00000000000000000000000000000000 k
b00000000000000000000000000000000 l
b00000000000000000000000000000000 m
b00000000000000000000000000000000 n
b00000000000000000000000000000000 o
b00000000000000000000000000000000 p
b00000000000000000000000000100000 q
0r
b00000000000000000000000000 s
1t
b00 u
b0000000000000000000000000000000000000000000000000000000000000000000000000000000000000000000000000000000000000000000000000000000000000000000000000000000000000000000000000000000000000000000000000000000000000000000000000000000000000000000000000000000000000000000000000000000000000000000 v
b0000000000000000000000000000000000000000000000000000000000000000000000000000000000000000000000000000000000000000000000000000000000000000000000000000000000000000000000000000000000000000000000000000000000000000000000000000000000000000000000000000000000000000000000000000000000000000000 !!
b0000000000000000000000000000000000000000000000000000000000000000000000000000000000000000000000000000000000000000000000000000000000000000000000000000000000000000000000000000000000000000000000000000000000000000000000000000000000000000000000000000000000000000000000000000000000000000000 *!
b0000000000000000000000000000000000000000000000000000000000000000000000000000000000000000000000000000000000000000000000000000000000000000000000000000000000000000000000000000000000000000000000000000000000000000000000000000000000000000000000000000000000000000000000000000000000000000000 3!
b00000000 <!
b00000000000000000000000000000000 =!
b00000000000000000000000000000000 >!
1?!
0@!
0A!
b00000000000000000000000000000000 B!
b00000000000000000000000000000000 C!
b00000000000000000000000000000000 D!
b00000000000000000000000000000000 E!
b00000000000000000000000000000000 F!
b00000000000000000000000000000000 G!
b00000000000000000000000000000000 H!
b00000000000000000000000000000000 I!
b00000000 J!
1K!
b0000000000000000000000000000000000000000000000000000000000000000000000000000000000000000000000000000000000000000000000000000000000000000000000000000000000000000000000000000000000000000000000000000000000000000000000000000000000000000000000000000000000000000 L!
0T!
0U!
b0000 V!
b000 W!
b000 X!
b0000 Y!
b00 Z!
b00 [!
b00 \!
0]!
0^!
b00 _!
0`!
0a!
b0000 b!
b00 c!
b00 d!
b00 e!
0f!
0g!
b00 h!
b00 i!
0j!
b00 k!
0l!
0m!
0n!
b00000000000000000000000000000000 o!
b00000000000000000000000000100000 p!
b0000 q!
b0000 r!
b00000000000000000000010000000000 s!
b01 t!
b00 u!
b10 v!
b10000000000000000000000000000000 w!
b00000000000000000000000000000100 x!
b00000000000000000000000000001000 y!
1z!
b00000000000000000000000000010000 {!
b00000000000000000000000000000010 |!
b00000000000000000000000000000001 }!
b00000000000000000000000000000000 ~!
b00000000000000000000000100000000 !"
b11 ""
b00000000000000000000000000011010 #"
b00000000000000000000000100011011 $"
0%"
b00000000 &"
b000 '"
0("
0)"
b0000 *"
0+"
0,"
b00 -"
0."
b00000111 /"
b010 0"
01"
b00 2"
#5000
b10000000000000000000000000000000 C
b10000000000000000000000000000000 D
b10000000000000000000000000000100 E
b10000000000000000000000000001000 F
b10000000000000000000000000001100 G
b10000000000000000000000000010000 H
b10000000000000000000000000010100 I
b10000000000000000000000000011000 J
b10000000000000000000000000011100 K
b10000000000000000000000000100000 q
1r
0t
b0000000000000000000000000000000000000000000000000000000000000000000000000000000000000000000000000000000000000000000000000000000000000000000000000000000000000000000000000000000000000000000000000000000000000000000000000000000000000000000000000000000000000000000000000000000000000000001 v
b10000000000000000000000000000000 >!
1m!
#10000
0#
0m!
#15000
b10000000000000000000000000 s
1t
b0000000000000000000000000000000000000000000000000000000000000000000000000000000000000000000000000000000000000000000000000000000000000000000000000000000000000000000000000000000000000000000000000000000000000000000000000000000000000000000000000000000000000000100000000000000000000000001 v
1m!
#16000
0K!
b01 i!
#20000
0m!
#25000
1<
1m!
#26000
b10 i!
1l!
#30000
0m!
#35000
0<
b01 >
b00000111 ?
b010 @
b10000000000000000000000000000000 A
b01 B
0?!
1A!
1m!
b11001110101110110010101110010001 o!
#40000
0m!
#45000
b10 >
b00000110 ?
b10000000000000000000000000000100 A
b0000000000000000000000000000000000000000000000000000000000000000000000000000000000000000000000000000000000000000000000000000000000000000000000000000000000000000000000000000000000000000000000000000000000000000000000000000000011001110101110110010101110010001100000000000000000000000001 v
b00000001 <!
b11001110101110110010101110010001 B!
b0000000000000000000000000000000000000000000000000000000000000000000000000000000000000000000000000000000000000000000000000000000000000000000000000000000000000000000000000000000000000000000000000000000000000000000000000000000011001110101110110010101110010001 L!
1m!
b11000111010100110011000110100101 o!
#50000
0m!
#55000
b00000101 ?
b10000000000000000000000000001000 A
b0000000000000000000000000000000000000000000000000000000000000000000000000000000000000000000000000000000000000000000000000000000000000000000000000000000000000000000000000000000000000000000000001100011101010011001100011010010111001110101110110010101110010001100000000000000000000000001 v
b00000010 <!
b11000111010100110011000110100101 C!
b0000000000000000000000000000000000000000000000000000000000000000000000000000000000000000000000000000000000000000000000000000000000000000000000000000000000000000000000000000000000000000000000001100011101010011001100011010010111001110101110110010101110010001 L!
1m!
b10100011111110000001110010011011 o!
#60000
0m!
#65000
b00000100 ?
b10000000000000000000000000001100 A
b0000000000000000000000000000000000000000000000000000000000000000000000000000000000000000000000000000000000000000000000000000000000000000000000000000000000000000101000111111100000011100100110111100011101010011001100011010010111001110101110110010101110010001100000000000000000000000001 v
b00000011 <!
b10100011111110000001110010011011 D!
b0000000000000000000000000000000000000000000000000000000000000000000000000000000000000000000000000000000000000000000000000000000000000000000000000000000000000000101000111111100000011100100110111100011101010011001100011010010111001110101110110010101110010001 L!
1m!
b11011011111100001101101111111100 o!
#70000
0m!
#75000
b00000011 ?
b10000000000000000000000000010000 A
b0000000000000000000000000000000000000000000000000000000000000000000000000000000000000000000000000000000000000000000000000000000011011011111100001101101111111100101000111111100000011100100110111100011101010011001100011010010111001110101110110010101110010001100000000000000000000000001 v
b00000100 <!
b11011011111100001101101111111100 E!
b0000000000000000000000000000000000000000000000000000000000000000000000000000000000000000000000000000000000000000000000000000000011011011111100001101101111111100101000111111100000011100100110111100011101010011001100011010010111001110101110110010101110010001 L!
1m!
b10010011100111111111000100010111 o!
#80000
0m!
#85000
b00000010 ?
b10000000000000000000000000010100 A
b0000000000000000000000000000000000000000000000000000000000000000000000000000000000000000000000001001001110011111111100010001011111011011111100001101101111111100101000111111100000011100100110111100011101010011001100011010010111001110101110110010101110010001100000000000000000000000001 v
b00000101 <!
b10010011100111111111000100010111 F!
b0000000000000000000000000000000000000000000000000000000000000000000000000000000000000000000000001001001110011111111100010001011111011011111100001101101111111100101000111111100000011100100110111100011101010011001100011010010111001110101110110010101110010001 L!
1m!
b01110101100110100111000100101101 o!
#90000
0m!
#95000
b00000001 ?
b10000000000000000000000000011000 A
b0000000000000000000000000000000000000000000000000000000000000000011101011001101001110001001011011001001110011111111100010001011111011011111100001101101111111100101000111111100000011100100110111100011101010011001100011010010111001110101110110010101110010001100000000000000000000000001 v
b00000110 <!
b01110101100110100111000100101101 G!
b0000000000000000000000000000000000000000000000000000000000000000011101011001101001110001001011011001001110011111111100010001011111011011111100001101101111111100101000111111100000011100100110111100011101010011001100011010010111001110101110110010101110010001 L!
1m!
b10000011101010111010010010111111 o!
#100000
0m!
#105000
b00000000 ?
b10000000000000000000000000011100 A
b0000000000000000000000000000000010000011101010111010010010111111011101011001101001110001001011011001001110011111111100010001011111011011111100001101101111111100101000111111100000011100100110111100011101010011001100011010010111001110101110110010101110010001100000000000000000000000001 v
b00000111 <!
1@!
b10000011101010111010010010111111 H!
b0000000000000000000000000000000010000011101010111010010010111111011101011001101001110001001011011001001110011111111100010001011111011011111100001101101111111100101000111111100000011100100110111100011101010011001100011010010111001110101110110010101110010001 L!
1m!
b11000011110101011110001010011110 o!
#110000
0m!
#115000
b00 >
b10000000000000000000000000100000 A
b1100001111010101111000101001111010000011101010111010010010111111011101011001101001110001001011011001001110011111111100010001011111011011111100001101101111111100101000111111100000011100100110111100011101010011001100011010010111001110101110110010101110010001100000000000000000000000001 v
b00001000 <!
1?!
0@!
0A!
b11000011110101011110001010011110 I!
b1100001111010101111000101001111010000011101010111010010010111111011101011001101001110001001011011001001110011111111100010001011111011011111100001101101111111100101000111111100000011100100110111100011101010011001100011010010111001110101110110010101110010001 L!
1m!
b00011010100110100100100110011101 o!
#116000
b11111111 J!
1T!
1U!
b1000 V!
b100 W!
b100 X!
b1111 Y!
b10 Z!
b10 [!
b11 \!
1]!
1^!
b11 _!
1`!
1a!
b1111 b!
b10 c!
b10 d!
b11 e!
1f!
1g!
b11 h!
b11 i!
0l!
1n!
#120000
0m!
